{
  "IsEncrypted": false,
  "Values": {
    "AzureWebJobsStorage": "DefaultEndpointsProtocol=https;AccountName=storageaccountsccsebce3;AccountKey=H9cLNCb/33xGIw42vzshXZLq5QNMFcGSrG+weqwQHN8E9cDYl9AzkY1G4BpdZHUoh6Q9OSz9CZiW+TjauNN2hA==;EndpointSuffix=core.windows.net",
    "sccstorewesteu48092": "DefaultEndpointsProtocol=https;AccountName=sccstorewesteu48092;AccountKey=Fqc6qQOl0AiNP0GE8Wnd+Vh8VZETu49z5uM2kurqPGPRlAwAN/0etLmQJB70eYdK8QkUH2pIGPOXOjI3AxAzkw==;EndpointSuffix=core.windows.net",
    "FUNCTIONS_WORKER_RUNTIME": "java"
  }
}